# Blender v3.0.0 OBJ File: ''
# www.blender.org
mtllib dodecaedre_rhombique.mtl
o Solid
v 0.577350 0.577350 -0.577350
v 0.577350 -0.577350 -0.577350
v 0.577350 0.577350 0.577350
v 0.577350 -0.577350 0.577350
v -0.577350 0.577350 -0.577350
v -0.577350 -0.577350 -0.577350
v -0.577350 0.577350 0.577350
v -0.577350 -0.577350 0.577350
v 0.356822 0.000000 -0.934172
v -0.356822 0.000000 -0.934172
v 0.356822 0.000000 0.934172
v -0.356822 0.000000 0.934172
v 0.934172 0.356822 0.000000
v 0.934172 -0.356822 0.000000
v -0.934172 0.356822 0.000000
v -0.934172 -0.356822 0.000000
v 0.000000 0.934172 -0.356822
v 0.000000 0.934172 0.356822
v 0.000000 -0.934172 -0.356822
v 0.000000 -0.934172 0.356822
vn 0.8507 0.0000 0.5257
vn -0.5257 0.8507 0.0000
vn 0.0000 0.5257 -0.8507
vn -0.8507 0.0000 0.5257
vn -0.5257 -0.8507 0.0000
vn 0.5257 -0.8507 0.0000
vn 0.0000 -0.5257 0.8507
vn 0.5257 0.8507 0.0000
vn 0.0000 -0.5257 -0.8507
vn 0.0000 0.5257 0.8507
vn 0.8507 0.0000 -0.5257
vn -0.8507 0.0000 -0.5257
usemtl None
s off
f 3//1 11//1 4//1 14//1 13//1
f 5//2 15//2 7//2 18//2 17//2
f 9//3 10//3 5//3 17//3 1//3
f 12//4 7//4 15//4 16//4 8//4
f 16//5 6//5 19//5 20//5 8//5
f 20//6 19//6 2//6 14//6 4//6
f 20//7 4//7 11//7 12//7 8//7
f 17//8 18//8 3//8 13//8 1//8
f 2//9 19//9 6//9 10//9 9//9
f 12//10 11//10 3//10 18//10 7//10
f 13//11 14//11 2//11 9//11 1//11
f 6//12 16//12 15//12 5//12 10//12
