# Blender v3.0.0 OBJ File: ''
# www.blender.org
mtllib maison_classic.mtl
o Cube
v 1.000000 1.000000 -1.000000
v 1.000000 -1.000000 -1.000000
v 1.000000 1.000000 1.000000
v 1.000000 -1.000000 1.000000
v -1.000000 1.000000 -1.000000
v -1.000000 -1.000000 -1.000000
v -1.000000 1.000000 1.000000
v -1.000000 -1.000000 1.000000
v 0.000000 3.000000 0.000000
vt 0.625000 0.750000
vt 0.625000 0.500000
vt 0.625000 0.750000
vt 0.375000 0.750000
vt 0.625000 1.000000
vt 0.375000 1.000000
vt 0.375000 0.000000
vt 0.625000 0.000000
vt 0.625000 0.250000
vt 0.375000 0.250000
vt 0.125000 0.500000
vt 0.375000 0.500000
vt 0.125000 0.750000
vt 0.625000 0.500000
vt 0.625000 1.000000
vt 0.625000 0.250000
vn 0.8944 0.4472 0.0000
vn 0.0000 0.0000 1.0000
vn -1.0000 0.0000 0.0000
vn 0.0000 -1.0000 0.0000
vn 1.0000 0.0000 0.0000
vn 0.0000 0.0000 -1.0000
vn 0.0000 0.4472 -0.8944
vn 0.0000 0.4472 0.8944
vn -0.8944 0.4472 0.0000
usemtl Material
s off
f 3/1/1 1/2/1 9/3/1
f 4/4/2 3/1/2 7/5/2 8/6/2
f 8/7/3 7/8/3 5/9/3 6/10/3
f 6/11/4 2/12/4 4/4/4 8/13/4
f 2/12/5 1/2/5 3/1/5 4/4/5
f 6/10/6 5/9/6 1/2/6 2/12/6
f 1/2/7 5/9/7 9/14/7
f 7/5/8 3/1/8 9/15/8
f 5/9/9 7/8/9 9/16/9
