# Blender v3.0.0 OBJ File: ''
# www.blender.org
mtllib surface_landscape_simple.mtl
o Landscape
v -1.000000 0.000000 1.000000
v -1.000000 0.000000 0.777778
v -1.000000 0.000000 0.555556
v -1.000000 0.000000 0.333333
v -1.000000 0.000000 0.111111
v -1.000000 0.000000 -0.111111
v -1.000000 0.000000 -0.333333
v -1.000000 0.000000 -0.555556
v -1.000000 0.000000 -0.777778
v -1.000000 0.000000 -1.000000
v -0.777778 0.000000 1.000000
v -0.777778 0.018784 0.777778
v -0.777778 0.110504 0.555556
v -0.777778 0.139372 0.333333
v -0.777778 0.117127 0.111111
v -0.777778 0.095674 -0.111111
v -0.777778 0.170357 -0.333333
v -0.777778 0.106749 -0.555556
v -0.777778 0.019334 -0.777778
v -0.777778 0.000000 -1.000000
v -0.555556 0.000000 1.000000
v -0.555556 0.098330 0.777778
v -0.555556 0.265087 0.555556
v -0.555556 0.344072 0.333333
v -0.555556 0.367417 0.111111
v -0.555556 0.358777 -0.111111
v -0.555556 0.391076 -0.333333
v -0.555556 0.308060 -0.555556
v -0.555556 0.104902 -0.777778
v -0.555556 0.000000 -1.000000
v -0.333333 0.000000 1.000000
v -0.333333 0.134482 0.777778
v -0.333333 0.326580 0.555556
v -0.333333 0.506191 0.333333
v -0.333333 0.466344 0.111111
v -0.333333 0.553120 -0.111111
v -0.333333 0.554123 -0.333333
v -0.333333 0.294454 -0.555556
v -0.333333 0.113886 -0.777778
v -0.333333 0.000000 -1.000000
v -0.111111 0.000000 1.000000
v -0.111111 0.117070 0.777778
v -0.111111 0.335016 0.555556
v -0.111111 0.435041 0.333333
v -0.111111 0.483910 0.111111
v -0.111111 0.467984 -0.111111
v -0.111111 0.443526 -0.333333
v -0.111111 0.315192 -0.555556
v -0.111111 0.128927 -0.777778
v -0.111111 0.000000 -1.000000
v 0.111111 0.000000 1.000000
v 0.111111 0.093019 0.777778
v 0.111111 0.310158 0.555556
v 0.111111 0.338344 0.333333
v 0.111111 0.207568 0.111111
v 0.111111 0.174379 -0.111111
v 0.111111 0.301860 -0.333333
v 0.111111 0.255556 -0.555556
v 0.111111 0.122883 -0.777778
v 0.111111 0.000000 -1.000000
v 0.333333 0.000000 1.000000
v 0.333333 0.111405 0.777778
v 0.333333 0.271834 0.555556
v 0.333333 0.208180 0.333333
v 0.333333 0.111420 0.111111
v 0.333333 0.056382 -0.111111
v 0.333333 0.113125 -0.333333
v 0.333333 0.159351 -0.555556
v 0.333333 0.108363 -0.777778
v 0.333333 0.000000 -1.000000
v 0.555556 0.000000 1.000000
v 0.555556 0.080471 0.777778
v 0.555556 0.182531 0.555556
v 0.555556 0.138909 0.333333
v 0.555556 0.089235 0.111111
v 0.555556 0.031688 -0.111111
v 0.555556 0.039186 -0.333333
v 0.555556 0.077692 -0.555556
v 0.555556 0.054597 -0.777778
v 0.555556 0.000000 -1.000000
v 0.777778 0.000000 1.000000
v 0.777778 0.015540 0.777778
v 0.777778 0.088138 0.555556
v 0.777778 0.095321 0.333333
v 0.777778 0.083419 0.111111
v 0.777778 0.044264 -0.111111
v 0.777778 0.029172 -0.333333
v 0.777778 0.025396 -0.555556
v 0.777778 0.011015 -0.777778
v 0.777778 0.000000 -1.000000
v 1.000000 0.000000 1.000000
v 1.000000 0.000000 0.777778
v 1.000000 0.000000 0.555556
v 1.000000 0.000000 0.333333
v 1.000000 0.000000 0.111111
v 1.000000 0.000000 -0.111111
v 1.000000 0.000000 -0.333333
v 1.000000 0.000000 -0.555556
v 1.000000 0.000000 -0.777778
v 1.000000 0.000000 -1.000000
vn -0.1072 0.9832 0.1478
vn -0.2268 0.9446 0.2372
vn -0.1597 0.9799 0.1195
vn -0.0422 0.9982 0.0422
vn -0.4606 0.8555 0.2363
vn -0.3850 0.9142 0.1266
vn -0.5904 0.8054 0.0527
vn -0.4949 0.8689 0.0066
vn -0.6106 0.7912 -0.0334
vn -0.4657 0.8838 -0.0434
vn -0.6081 0.7920 0.0531
vn -0.4724 0.8799 0.0499
vn -0.6333 0.7737 -0.0153
vn -0.5213 0.8533 0.0111
vn -0.4970 0.8245 -0.2704
vn -0.4007 0.9030 -0.1548
vn -0.2445 0.9379 -0.2460
vn -0.1572 0.9807 -0.1157
vn -0.1139 0.9812 -0.1554
vn -0.0434 0.9981 -0.0434
vn -0.1221 0.9250 0.3596
vn -0.2172 0.8616 0.4587
vn -0.4115 0.7989 0.4386
vn -0.5719 0.8029 0.1679
vn -0.6356 0.7718 0.0183
vn -0.6722 0.7358 0.0816
vn -0.5933 0.7854 -0.1764
vn -0.3722 0.7790 -0.5045
vn -0.1850 0.8569 -0.4810
vn -0.1010 0.9290 -0.3558
vn -0.0189 0.8780 0.4783
vn -0.0500 0.8187 0.5720
vn -0.1179 0.8041 0.5826
vn -0.1708 0.9538 0.2470
vn -0.2233 0.9716 0.0773
vn -0.1640 0.9830 0.0824
vn -0.0964 0.9467 -0.3074
vn -0.0411 0.7677 -0.6395
vn -0.0253 0.8308 -0.5559
vn -0.0239 0.8873 -0.4605
vn 0.0415 0.8870 0.4599
vn 0.0451 0.8126 0.5810
vn 0.1212 0.8256 0.5511
vn 0.3056 0.9344 0.1828
vn 0.4431 0.8965 -0.0042
vn 0.5343 0.8438 0.0495
vn 0.4359 0.8660 -0.2450
vn 0.1606 0.8142 -0.5578
vn 0.0099 0.8346 -0.5507
vn -0.0089 0.8738 -0.4862
vn 0.0056 0.9063 0.4226
vn 0.0305 0.8346 0.5499
vn 0.1946 0.8917 0.4086
vn 0.4398 0.8946 -0.0790
vn 0.5778 0.7874 -0.2145
vn 0.6191 0.7825 0.0660
vn 0.5649 0.8248 0.0227
vn 0.3316 0.8822 -0.3342
vn 0.0976 0.8723 -0.4790
vn 0.0204 0.8785 -0.4772
vn 0.0131 0.9133 0.4071
vn 0.0751 0.8643 0.4973
vn 0.2528 0.9391 0.2327
vn 0.3303 0.9057 -0.2656
vn 0.2868 0.9145 -0.2853
vn 0.3275 0.9448 0.0079
vn 0.4143 0.8939 0.1711
vn 0.3564 0.9294 -0.0959
vn 0.1666 0.9270 -0.3361
vn 0.0711 0.9125 -0.4029
vn 0.1031 0.9471 0.3039
vn 0.1910 0.9105 0.3667
vn 0.3043 0.9415 0.1444
vn 0.2329 0.9542 -0.1879
vn 0.0973 0.9693 -0.2259
vn 0.0752 0.9936 -0.0841
vn 0.1686 0.9811 0.0945
vn 0.2451 0.9695 0.0043
vn 0.1780 0.9665 -0.1847
vn 0.1052 0.9638 -0.2450
vn 0.0886 0.9885 0.1226
vn 0.1797 0.9657 0.1871
vn 0.3111 0.9432 0.1159
vn 0.2915 0.9549 -0.0569
vn 0.1878 0.9753 -0.1162
vn 0.1061 0.9904 -0.0881
vn 0.1048 0.9945 0.0045
vn 0.1386 0.9903 -0.0116
vn 0.1034 0.9921 -0.0714
vn 0.0608 0.9945 -0.0853
vn 0.0349 0.9988 0.0349
vn 0.1305 0.9867 0.0966
vn 0.3047 0.9485 0.0865
vn 0.3773 0.9261 -0.0049
vn 0.3246 0.9442 -0.0547
vn 0.2195 0.9738 -0.0590
vn 0.1424 0.9896 -0.0209
vn 0.1017 0.9946 -0.0203
vn 0.0532 0.9982 -0.0285
vn 0.0248 0.9994 -0.0248
usemtl None
s 1
f 11//1 12//2 2//3 1//4
f 12//2 13//5 3//6 2//3
f 13//5 14//7 4//8 3//6
f 14//7 15//9 5//10 4//8
f 15//9 16//11 6//12 5//10
f 16//11 17//13 7//14 6//12
f 17//13 18//15 8//16 7//14
f 18//15 19//17 9//18 8//16
f 19//17 20//19 10//20 9//18
f 21//21 22//22 12//2 11//1
f 22//22 23//23 13//5 12//2
f 23//23 24//24 14//7 13//5
f 24//24 25//25 15//9 14//7
f 25//25 26//26 16//11 15//9
f 26//26 27//27 17//13 16//11
f 27//27 28//28 18//15 17//13
f 28//28 29//29 19//17 18//15
f 29//29 30//30 20//19 19//17
f 31//31 32//32 22//22 21//21
f 32//32 33//33 23//23 22//22
f 33//33 34//34 24//24 23//23
f 34//34 35//35 25//25 24//24
f 35//35 36//36 26//26 25//25
f 36//36 37//37 27//27 26//26
f 37//37 38//38 28//28 27//27
f 38//38 39//39 29//29 28//28
f 39//39 40//40 30//30 29//29
f 41//41 42//42 32//32 31//31
f 42//42 43//43 33//33 32//32
f 43//43 44//44 34//34 33//33
f 44//44 45//45 35//35 34//34
f 45//45 46//46 36//36 35//35
f 46//46 47//47 37//37 36//36
f 47//47 48//48 38//38 37//37
f 48//48 49//49 39//39 38//38
f 49//49 50//50 40//40 39//39
f 51//51 52//52 42//42 41//41
f 52//52 53//53 43//43 42//42
f 53//53 54//54 44//44 43//43
f 54//54 55//55 45//45 44//44
f 55//55 56//56 46//46 45//45
f 56//56 57//57 47//47 46//46
f 57//57 58//58 48//48 47//47
f 58//58 59//59 49//49 48//48
f 59//59 60//60 50//50 49//49
f 61//61 62//62 52//52 51//51
f 62//62 63//63 53//53 52//52
f 63//63 64//64 54//54 53//53
f 64//64 65//65 55//55 54//54
f 65//65 66//66 56//56 55//55
f 66//66 67//67 57//57 56//56
f 67//67 68//68 58//58 57//57
f 68//68 69//69 59//59 58//58
f 69//69 70//70 60//60 59//59
f 71//71 72//72 62//62 61//61
f 72//72 73//73 63//63 62//62
f 73//73 74//74 64//64 63//63
f 74//74 75//75 65//65 64//64
f 75//75 76//76 66//66 65//65
f 76//76 77//77 67//67 66//66
f 77//77 78//78 68//68 67//67
f 78//78 79//79 69//69 68//68
f 79//79 80//80 70//70 69//69
f 81//81 82//82 72//72 71//71
f 82//82 83//83 73//73 72//72
f 83//83 84//84 74//74 73//73
f 84//84 85//85 75//75 74//74
f 85//85 86//86 76//76 75//75
f 86//86 87//87 77//77 76//76
f 87//87 88//88 78//78 77//77
f 88//88 89//89 79//79 78//78
f 89//89 90//90 80//80 79//79
f 91//91 92//92 82//82 81//81
f 92//92 93//93 83//83 82//82
f 93//93 94//94 84//84 83//83
f 94//94 95//95 85//85 84//84
f 95//95 96//96 86//86 85//85
f 96//96 97//97 87//87 86//86
f 97//97 98//98 88//88 87//87
f 98//98 99//99 89//89 88//88
f 99//99 100//100 90//90 89//89
